<?xml version="1.0" encoding="UTF-8"?>
<svg width="43px" height="25px" viewBox="0 0 43 25" version="1.1" xmlns="http://www.w3.org/2000/svg" xmlns:xlink="http://www.w3.org/1999/xlink">
    <!-- Generator: sketchtool 51.2 (57519) - http://www.bohemiancoding.com/sketch -->
    <title>07A21326-FC35-4859-95A5-1E277492B711</title>
    <desc>Created with sketchtool.</desc>
    <defs></defs>
    <g id="Symbols" stroke="none" stroke-width="1" fill="none" fill-rule="evenodd">
        <g id="mail" fill="#323656" fill-rule="nonzero">
            <g id="mail-(4)">
                <path d="M14.9999398,16 L6.99997422,16 C6.39995531,16 6,16.4000516 6,17 C6,17.5999484 6.40004125,18 6.99997422,18 L15.0000258,18 C15.6000447,18 16,17.5999484 16,17 C16,16.4000516 15.5999587,16 14.9999398,16 Z" id="Shape"></path>
                <path d="M12.0000258,11 L3.99997422,11 C3.39995531,11 3,11.4000516 3,12 C3,12.5999484 3.40004125,13 3.99997422,13 L12.0000258,13 C12.6000447,13 13,12.5999484 13,12 C13,11.4000516 12.6000447,11 12.0000258,11 Z" id="Shape"></path>
                <path d="M9.00002578,6 L0.999974219,6 C0.40004125,6 0,6.39996562 0,7 C0,7.60003438 0.40004125,8 0.999974219,8 L9.00002578,8 C9.60004469,8 10,7.59994844 10,7 C10,6.40005156 9.60004469,6 9.00002578,6 Z" id="Shape"></path>
                <path d="M38.8260361,4.37114308 C38.5268743,4.00429421 37.8288871,3.9126411 37.429976,4.18775805 L26.8599049,11.6157582 C25.7630066,12.3493771 24.2671974,12.3493771 23.1702992,11.6157582 L12.600228,4.18775805 C12.2013169,3.9126411 11.5033297,3.9126411 11.2041679,4.37114308 C10.905006,4.73799196 10.905006,5.37987897 11.4035806,5.65499593 L22.0734009,13.082996 C22.9708865,13.724883 24.0677847,14 25.0649337,14 C26.0620828,14 27.2587302,13.724883 28.0564666,13.082996 L38.6266234,5.65499593 C39.0255345,5.37987897 39.125198,4.73799196 38.8260361,4.37114308 Z" id="Shape"></path>
                <path d="M40.0833403,0 L8.97219205,0 C8.3888434,0 8,0.384654794 8,0.961513036 C8,1.53837128 8.3888434,1.9231087 8.97219205,1.9231087 L40.0833403,1.9231087 C40.6666889,1.9231087 41.0555323,2.3077635 41.0555323,2.88462174 L41.0555323,22.1154609 C41.0555323,22.6924018 40.6666054,23.0769739 40.0833403,23.0769739 L8.97219205,23.0769739 C8.3888434,23.0769739 8,23.4616287 8,24.038487 C8,24.6154278 8.38892695,25 8.97219205,25 L40.0833403,25 C41.7361336,25 43,23.7500165 43,22.1153783 L43,2.88462174 C43,1.25006611 41.7361336,0 40.0833403,0 Z" id="Shape"></path>
                <path d="M39.7000346,20.2999906 L33.70004,14.3000282 C33.3000003,13.8999906 32.7000696,13.8999906 32.3000298,14.3000282 C31.8999901,14.7000658 31.8999901,15.2999933 32.3000298,15.7000309 L38.3000244,21.6999933 C38.5000013,21.8999691 38.8000097,22 38.9999866,22 C39.1999635,22 39.4999718,21.8999691 39.7000346,21.6999933 C40.0999885,21.3000416 40.0999885,20.7000282 39.7000346,20.2999906 Z" id="Shape"></path>
            </g>
        </g>
    </g>
</svg>