<?xml version="1.0" encoding="UTF-8"?>
<svg width="22px" height="23px" viewBox="0 0 22 23" version="1.1" xmlns="http://www.w3.org/2000/svg" xmlns:xlink="http://www.w3.org/1999/xlink">
    <!-- Generator: sketchtool 51.2 (57519) - http://www.bohemiancoding.com/sketch -->
    <title>3F5460E5-9951-40F1-89B3-8825ED7BBF42</title>
    <desc>Created with sketchtool.</desc>
    <defs></defs>
    <g id="Page-1" stroke="none" stroke-width="1" fill="none" fill-rule="evenodd">
        <g id="/benefits-copy" transform="translate(-529.000000, -790.000000)" fill="#0BCA95" fill-rule="nonzero" stroke="#0BCA95" stroke-width="0.5">
            <path d="M535.77229,811.754183 C534.415332,811.754183 532.842143,811.530369 531.478642,810.27554 C530.115142,809.020711 530,807.496163 530,806.139205 C530,804.782631 530.525125,803.510508 531.478642,802.557375 L541.955814,792.080203 C543.454801,790.581984 545.784085,790.64916 547.373664,792.238739 C548.963243,793.828318 549.03157,796.157218 547.532583,797.656589 L537.689938,807.499234 C536.765979,808.423193 535.261234,808.424729 534.335739,807.499234 C533.411011,806.574123 533.411395,805.069378 534.335739,804.145034 L541.003065,797.477708 C541.228009,797.252764 541.592295,797.252764 541.817239,797.477708 C542.042183,797.702652 542.042183,798.066939 541.817239,798.291883 L535.149913,804.959209 C534.674306,805.434816 534.674306,806.209068 535.149913,806.685059 C535.626288,807.160666 536.400157,807.159898 536.875764,806.685059 L546.718409,796.842414 C547.752921,795.807518 547.684977,794.178401 546.559489,793.052913 C545.434001,791.927425 543.804884,791.859482 542.769988,792.894378 L532.292817,803.371549 C531.556951,804.107416 531.151591,805.09049 531.151591,806.139205 C531.151591,807.188304 531.090796,808.411572 532.292817,809.461366 C533.494838,810.511159 534.723191,810.602592 535.77229,810.602592 C536.821005,810.602592 537.80408,810.197232 538.539946,809.461366 L549.017117,798.984194 C549.242061,798.75925 549.606348,798.75925 549.831292,798.984194 C550.056236,799.209138 550.056236,799.573425 549.831292,799.798369 L539.354121,810.27554 C538.400987,811.228673 537.128864,811.754183 535.77229,811.754183 Z" id="Shape"></path>
        </g>
    </g>
</svg>