<?xml version="1.0" encoding="UTF-8"?>
<svg width="65px" height="22px" viewBox="0 0 65 22" version="1.1" xmlns="http://www.w3.org/2000/svg" xmlns:xlink="http://www.w3.org/1999/xlink">
    <!-- Generator: sketchtool 51.2 (57519) - http://www.bohemiancoding.com/sketch -->
    <title>CB799CA9-0025-481B-94EF-22269202C1CD</title>
    <desc>Created with sketchtool.</desc>
    <defs></defs>
    <g id="Page-1" stroke="none" stroke-width="1" fill="none" fill-rule="evenodd" stroke-linecap="round" stroke-linejoin="round">
        <g id="/main-4-copy-41" transform="translate(-145.000000, -4060.000000)" stroke="#0BCA95">
            <g id="waves-copy-3" transform="translate(150.000000, 4065.000000)">
                <g transform="translate(27.500000, 6.000000) scale(1, -1) translate(-27.500000, -6.000000) ">
                    <path d="M13.6452468,11.4620073 C7.15913167,11.4620073 8.27707134,0 0,0" id="Stroke-1" stroke-width="10"></path>
                    <path d="M40.9357403,11.4620073 C34.4487327,11.4620073 35.5668262,0 27.2904935,0" id="Stroke-3" stroke-width="10"></path>
                    <path d="M13.6452468,11.4620073 C20.1313619,11.4620073 19.0134222,0 27.2904935,0" id="Stroke-5" stroke-width="10"></path>
                    <path d="M40.9357403,11.4620073 C47.4208703,11.4620073 46.3046544,0 54.5809871,0" id="Stroke-7" stroke-width="10"></path>
                </g>
            </g>
        </g>
    </g>
</svg>